Bioethics keywords: part one
…
## # A tibble: 1 x 1
##   `n_distinct(pub.name)`
##                    <int>
## 1                   1027

That is a lot of journals. I assume that there is a gross inequality in the number times these journals appear in the data, but, to be sure, I am going to plot the distribution of the number of times journals appear in the data.

unnest.akw %>% 
  filter(pub.type == "J") %>%
  count(pub.name, sort = TRUE) 

## # A tibble: 1,027 x 2
##    pub.name                                n
##    <chr>                               <int>
##  1 JOURNAL OF MEDICINE AND PHILOSOPHY   1562
##  2 BIOETHICS                            1544
##  3 THEORETICAL MEDICINE AND BIOETHICS   1078
##  4 JOURNAL OF BIOETHICAL INQUIRY        1049
##  5 DEVELOPING WORLD BIOETHICS            948
##  6 MEDICINE HEALTH CARE AND PHILOSOPHY   906
##  7 SOCIAL SCIENCE & MEDICINE             880
##  8 CHRISTIAN BIOETHICS                   754
##  9 AMERICAN JOURNAL OF BIOETHICS         684
## 10 HEALTH CARE ANALYSIS                  538
## # ... with 1,017 more rows
…
total.words <- akw.j.noyears.final %>% 
  group_by(journal) %>% 
  summarize(total = sum(n))

journal.words <- left_join(akw.j.noyears.final,
                           total.words)

## Joining, by = "journal"

journal.words <- journal.words %>%
  bind_tf_idf(keyword, journal, n)
journal.words

## # A tibble: 21,042 x 7
##    keyword    journal                          n total     tf   idf tf_idf
##    <chr>      <chr>                        <int> <int>  <dbl> <dbl>  <dbl>
##  1 developing DEVELOPING WORLD BIOETHICS      61   798 0.0764  3.75 0.287 
##  2 world      DEVELOPING WORLD BIOETHICS      60   798 0.0752  4.22 0.317 
##  3 moral      JOURNAL OF MEDICINE AND PHI~    36  1377 0.0261  2.70 0.0705
##  4 research   BIOETHICS                       35  1369 0.0256  1.41 0.0361
##  5 research   DEVELOPING WORLD BIOETHICS      35   798 0.0439  1.41 0.0620
##  6 health     BIOETHICS                       34  1369 0.0248  1.64 0.0407
##  7 health     DEVELOPING WORLD BIOETHICS      32   798 0.0401  1.64 0.0657
##  8 nursing    NURSING ETHICS                  31   339 0.0914  3.29 0.301 
##  9 research   JOURNAL OF EMPIRICAL RESEAR~    31   290 0.107   1.41 0.151 
## 10 research   BMC MEDICAL ETHICS              30   419 0.0716  1.41 0.101 
## # ... with 21,032 more rows
…
# create variable
keyword.evo$num.yrs.active <- NA

# fill-in variable
for (i in 1:nrow(keyword.evo)) {
  keyword.evo$num.yrs.active[i] <- test.bind %>%
    filter(keyword == keyword.evo$keyword[i]) %>%
    summarise(n_distinct(year)) %>%
    as.numeric()
}

keyword.evo %>%
  arrange(desc(num.yrs.active)) 

## # A tibble: 4,968 x 2
##    keyword    num.yrs.active
##    <chr>               <dbl>
##  1 medical              28.0
##  2 medicine             28.0
##  3 care                 27.0
##  4 autonomy             27.0
##  5 education            27.0
##  6 philosophy           27.0
##  7 moral                26.0
##  8 clinical             26.0
##  9 consent              26.0
## 10 patient              26.0
## # ... with 4,958 more rows
…
